<?xml version="1.0" encoding="UTF-8" standalone="no"?>
<!-- Created with Inkscape (http://www.inkscape.org/) -->

<svg
   xmlns:dc="http://purl.org/dc/elements/1.1/"
   xmlns:cc="http://creativecommons.org/ns#"
   xmlns:rdf="http://www.w3.org/1999/02/22-rdf-syntax-ns#"
   xmlns:svg="http://www.w3.org/2000/svg"
   xmlns="http://www.w3.org/2000/svg"
   xmlns:sodipodi="http://sodipodi.sourceforge.net/DTD/sodipodi-0.dtd"
   xmlns:inkscape="http://www.inkscape.org/namespaces/inkscape"
   width="120.89876mm"
   height="18.8976mm"
   viewBox="0 0 428.38143 66.96"
   id="svg2"
   version="1.1"
   inkscape:version="0.91 r13725"
   sodipodi:docname="Dreamsium.svg">
  <defs
     id="defs4" />
  <sodipodi:namedview
     id="base"
     pagecolor="#ffffff"
     bordercolor="#666666"
     borderopacity="1.0"
     inkscape:pageopacity="0.0"
     inkscape:pageshadow="2"
     inkscape:zoom="1.2346236"
     inkscape:cx="252.29575"
     inkscape:cy="-143.90047"
     inkscape:document-units="px"
     inkscape:current-layer="layer1"
     showgrid="false"
     fit-margin-top="0"
     fit-margin-left="0"
     fit-margin-right="0"
     fit-margin-bottom="0"
     inkscape:window-width="1920"
     inkscape:window-height="1017"
     inkscape:window-x="0"
     inkscape:window-y="30"
     inkscape:window-maximized="1" />
  <metadata
     id="metadata7">
    <rdf:RDF>
      <cc:Work
         rdf:about="">
        <dc:format>image/svg+xml</dc:format>
        <dc:type
           rdf:resource="http://purl.org/dc/dcmitype/StillImage" />
        <dc:title></dc:title>
      </cc:Work>
    </rdf:RDF>
  </metadata>
  <g
     inkscape:label="Layer 1"
     inkscape:groupmode="layer"
     id="layer1"
     transform="translate(-45.152857,-426.66221)">
    <g
       style="font-style:normal;font-weight:normal;font-size:40px;line-height:125%;font-family:sans-serif;letter-spacing:0px;word-spacing:0px;fill:#000000;fill-opacity:1;stroke:none;stroke-width:1px;stroke-linecap:butt;stroke-linejoin:miter;stroke-opacity:1"
       id="text3336">
      <path
         d="m 74.492857,430.62221 c -3.15,-0.36 -4.59,-0.36 -7.92,-0.36 l -21.42,0 0,62.1 21.24,0 c 3.33,0 4.77,0 7.92,-0.36 14.4,-1.71 25.740003,-12.51 25.740003,-31.5 0,-18.99 -11.160003,-28.17 -25.560003,-29.88 z m -2.97,51.66 c -1.98,0.27 -3.87,0.27 -6.57,0.27 l -7.38,0 0,-42.57 7.56,0 c 2.79,0 4.59,0.09 6.66,0.36 9.18,1.17 15.12,8.1 15.12,20.34 0,12.69 -6.12,20.43 -15.39,21.6 z"
         style="font-style:normal;font-variant:normal;font-weight:normal;font-stretch:normal;font-size:90px;font-family:'Aileron Bold';-inkscape-font-specification:'Aileron Bold, ';letter-spacing:-6.18999863px"
         id="path3450"
         inkscape:connector-curvature="0" />
      <path
         d="m 126.75505,443.31221 c -2.7,0 -5.85,1.08 -8.19,3.24 l -3.78,6.66 0,-8.73 -12.42,0 0,47.88 12.42,0 0,-21.96 c 0,-12.87 5.13,-17.46 15.48,-16.74 l 0,-9.99 c -1.08,-0.27 -2.07,-0.36 -3.51,-0.36 z"
         style="font-style:normal;font-variant:normal;font-weight:normal;font-stretch:normal;font-size:90px;font-family:'Aileron Bold';-inkscape-font-specification:'Aileron Bold, ';letter-spacing:-6.18999863px"
         id="path3452"
         inkscape:connector-curvature="0" />
      <path
         d="m 173.39505,467.43221 c 0,-13.05 -7.74,-24.21 -22.41,-24.21 -14.67,0 -24.3,10.71 -24.3,25.38 0,16.83 10.17,25.02 23.31,25.02 11.25,0 20.25,-5.67 22.68,-16.83 l -12.42,0 c -0.81,5.13 -4.68,8.1 -9.99,8.1 -5.76,0 -10.26,-3.15 -11.07,-13.23 l 34.02,0 c 0.18,-1.62 0.18,-3.06 0.18,-4.23 z m -22.95,-15.48 c 5.94,0 9.36,4.05 10.17,11.61 l -21.06,0 c 1.08,-7.92 5.13,-11.61 10.89,-11.61 z"
         style="font-style:normal;font-variant:normal;font-weight:normal;font-stretch:normal;font-size:90px;font-family:'Aileron Bold';-inkscape-font-specification:'Aileron Bold, ';letter-spacing:-6.18999863px"
         id="path3454"
         inkscape:connector-curvature="0" />
      <path
         d="m 203.5763,492.36221 12.15,0 c -0.72,-5.31 -0.9,-8.55 -0.9,-12.15 l 0,-15.48 c 0,-2.61 -0.09,-5.13 -0.27,-7.38 -0.72,-8.28 -5.76,-14.13 -19.17,-14.13 -11.43,0 -20.16,6.12 -20.52,16.92 l 12.06,-0.09 c 0.36,-5.22 3.06,-8.1 8.01,-8.1 4.86,0 7.02,2.43 7.38,5.76 0.18,1.62 0.18,3.06 0.18,4.5 l 0,0.99 -3.06,0 c -17.37,0 -26.37,5.94 -26.37,16.47 0,9.09 7.11,13.95 15.39,13.95 4.5,0 8.55,-0.9 11.88,-3.15 l 2.34,-5.13 0.9,7.02 z m -10.35,-7.47 c -4.41,0 -7.29,-1.98 -7.29,-6.21 0,-6.3 6.66,-8.55 16.56,-7.83 l 0,3.87 c 0,6.66 -4.23,10.17 -9.27,10.17 z"
         style="font-style:normal;font-variant:normal;font-weight:normal;font-stretch:normal;font-size:90px;font-family:'Aileron Bold';-inkscape-font-specification:'Aileron Bold, ';letter-spacing:-6.18999863px"
         id="path3456"
         inkscape:connector-curvature="0" />
      <path
         d="m 291.3013,455.10221 c -1.08,-6.57 -6.3,-11.88 -15.39,-11.88 -4.32,0 -7.56,0.9 -10.26,2.79 l -4.68,6.3 c -1.89,-5.22 -6.84,-9.09 -14.67,-9.09 -4.32,0 -7.47,0.9 -10.17,2.79 l -3.51,5.76 0,-7.29 -12.42,0 0,47.88 12.42,0 0,-24.57 c 0,-11.07 3.06,-15.84 8.64,-15.84 4.77,0 7.56,2.7 8.19,7.65 0.27,2.43 0.36,5.04 0.36,7.83 l 0,24.93 12.33,0 0,-24.57 c 0,-11.07 3.15,-15.84 8.73,-15.84 4.77,0 7.47,2.7 8.1,7.65 0.27,2.43 0.36,5.04 0.36,7.83 l 0,24.93 12.42,0 0,-28.53 c 0,-3.87 -0.09,-6.3 -0.45,-8.73 z"
         style="font-style:normal;font-variant:normal;font-weight:normal;font-stretch:normal;font-size:90px;font-family:'Aileron Bold';-inkscape-font-specification:'Aileron Bold, ';letter-spacing:-6.18999863px"
         id="path3458"
         inkscape:connector-curvature="0" />
      <path
         d="m 313.5527,443.22221 c -11.43,0 -18.99,5.58 -18.99,14.76 0,8.28 6.12,12.15 15.03,14.4 8.28,2.07 11.43,4.14 11.43,7.83 0,3.51 -3.06,5.22 -7.02,5.22 -4.32,0 -7.92,-2.43 -8.91,-7.65 l -12.42,0 c 1.35,10.8 9.54,15.84 21.15,15.84 10.98,0 19.71,-4.68 19.71,-14.31 0,-8.82 -5.76,-12.78 -15.57,-15.3 -7.92,-1.98 -10.89,-3.87 -10.89,-7.47 0,-2.97 1.98,-5.13 5.67,-5.13 4.14,0 6.57,2.52 7.38,6.93 l 12.42,0 c -1.08,-8.73 -7.56,-15.12 -18.99,-15.12 z"
         style="font-style:normal;font-variant:normal;font-weight:normal;font-stretch:normal;font-size:90px;font-family:'Aileron Bold';-inkscape-font-specification:'Aileron Bold, ';letter-spacing:-6.18999863px"
         id="path3460"
         inkscape:connector-curvature="0" />
      <path
         d="m 341.12115,426.66221 c -4.05,0 -6.84,2.7 -6.84,6.57 0,3.96 2.79,6.57 6.84,6.57 4.05,0 6.84,-2.61 6.84,-6.57 0,-3.87 -2.79,-6.57 -6.84,-6.57 z m 6.21,65.7 0,-47.88 -12.42,0 0,47.88 12.42,0 z"
         style="font-style:normal;font-variant:normal;font-weight:normal;font-stretch:normal;font-size:90px;font-family:'Aileron Bold';-inkscape-font-specification:'Aileron Bold, ';letter-spacing:-6.18999863px"
         id="path3462"
         inkscape:connector-curvature="0" />
      <path
         d="m 396.8174,444.48221 -12.42,0 0,24.39 c 0,10.8 -4.32,15.93 -10.53,15.93 -5.76,0 -8.64,-3.15 -9.27,-8.1 -0.27,-2.43 -0.36,-5.04 -0.36,-6.57 l 0,-25.65 -12.42,0 0,28.26 c 0,3.87 0.09,6.3 0.45,8.73 1.08,6.57 7.02,12.15 16.92,12.15 4.59,0 8.01,-0.9 11.52,-3.24 l 3.69,-6.12 0,8.1 12.42,0 0,-47.88 z"
         style="font-style:normal;font-variant:normal;font-weight:normal;font-stretch:normal;font-size:90px;font-family:'Aileron Bold';-inkscape-font-specification:'Aileron Bold, ';letter-spacing:-6.18999863px"
         id="path3464"
         inkscape:connector-curvature="0" />
      <path
         d="m 473.08427,455.10221 c -1.08,-6.57 -6.3,-11.88 -15.39,-11.88 -4.32,0 -7.56,0.9 -10.26,2.79 l -4.68,6.3 c -1.89,-5.22 -6.84,-9.09 -14.67,-9.09 -4.32,0 -7.47,0.9 -10.17,2.79 l -3.51,5.76 0,-7.29 -12.42,0 0,47.88 12.42,0 0,-24.57 c 0,-11.07 3.06,-15.84 8.64,-15.84 4.77,0 7.56,2.7 8.19,7.65 0.27,2.43 0.36,5.04 0.36,7.83 l 0,24.93 12.33,0 0,-24.57 c 0,-11.07 3.15,-15.84 8.73,-15.84 4.77,0 7.47,2.7 8.1,7.65 0.27,2.43 0.36,5.04 0.36,7.83 l 0,24.93 12.42,0 0,-28.53 c 0,-3.87 -0.09,-6.3 -0.45,-8.73 z"
         style="font-style:normal;font-variant:normal;font-weight:normal;font-stretch:normal;font-size:90px;font-family:'Aileron Bold';-inkscape-font-specification:'Aileron Bold, ';letter-spacing:-6.18999863px"
         id="path3466"
         inkscape:connector-curvature="0" />
    </g>
  </g>
</svg>
