<?xml version="1.0" encoding="utf-8"?>
<!-- Generator: Adobe Illustrator 21.1.0, SVG Export Plug-In . SVG Version: 6.00 Build 0)  -->
<svg version="1.1" id="Layer_1" xmlns="http://www.w3.org/2000/svg" xmlns:xlink="http://www.w3.org/1999/xlink" x="0px" y="0px"
	 viewBox="0 0 720 720" style="enable-background:new 0 0 720 720;" xml:space="preserve">
<style type="text/css">
	.st0{fill:#E83151;}
	.st1{fill:#FFFFFF;}
</style>
<path class="st0" d="M603.4,720H116.6C52.2,720,0,667.8,0,603.4V116.6C0,52.2,52.2,0,116.6,0h486.8C667.8,0,720,52.2,720,116.6
	v486.8C720,667.8,667.8,720,603.4,720z"/>
<path class="st1" d="M449.9,499.8c23.7-3.9,47.3-29,47.3-59.5V216.7c0-31.6-26.2-60.5-61.7-60.5h-152c-35.5,0-61.7,29-61.7,60.5
	v223.5c0,30.6,23.6,55.7,47.3,59.5L198,608h41l50.8-75.6h139.3L480,608h41L449.9,499.8z M319.5,179.2c0-5.5,4.7-10.1,10.1-10.1h59.9
	c5.4,0,10.1,4.6,10.1,10.1V197c0,5.5-4.4,10.2-10.1,10.2h-59.9c-5.7,0-10.1-4.7-10.1-10.2V179.2z M254.8,250.6
	c0-16.7,10.7-31.3,30.7-31.3h147.9c20.1,0,30.7,14.6,30.7,31.3v40.2c0.2,19.3-13.7,31.2-30.7,31.2H285.5c-17,0-30.9-11.8-30.7-31.2
	V250.6z M282.2,467.2c-14.9,0-27-12.3-27-27.5s12.1-27.5,27-27.5c14.9,0,27,12.3,27,27.5S297.1,467.2,282.2,467.2z M409.1,439.7
	c0-15.2,12.1-27.5,27-27.5s27,12.3,27,27.5c0,15.2-12.1,27.5-27,27.5S409.1,454.9,409.1,439.7z M399.3,132.3
	c0,9.6-7.7,17.3-17.1,17.3c-9.4,0-17.1-7.8-17.1-17.3c0-9.6,7.7-17.3,17.1-17.3C391.6,115,399.3,122.8,399.3,132.3z M353.9,132.3
	c0,9.6-7.7,17.3-17.1,17.3s-17.1-7.8-17.1-17.3c0-9.6,7.7-17.3,17.1-17.3S353.9,122.8,353.9,132.3z"/>
</svg>
